…
# No. days on trending
USnocomm_top100_view_ntrending <- US_nocomm_top100year_view %>%
  group_by(title) %>%
  summarise(channelTitle = first(channelTitle),
            v_ntrending = n(),
            sum_view = sum(view_count)) %>%
  arrange(desc(v_ntrending))

USnocomm_top100_view_ntrending
```

    ## # A tibble: 94 × 4
    ##    title                                                 chann…¹ v_ntr…² sum_v…³
    ##    <chr>                                                 <chr>     <int>   <dbl>
    ##  1 I Built Willy Wonka's Chocolate Factory!              MrBeast      14  8.15e8
    ##  2 I Survived 50 Hours In Antarctica                     MrBeast      11  6.68e8
    ##  3 Jhoome Jo Pathaan Song | Shah Rukh Khan, Deepika | V… YRF          10  6.11e8
    ##  4 Galaxy Unpacked January 2021: Official Replay l Sams… Samsung       9  3.04e8
    ##  5 I Opened A Restaurant That Pays You To Eat At It      MrBeast       9  2.63e8
    ##  6 so long nerds                                         Techno…       9  5.20e8
    ##  7 1,000 Blind People See For The First Time             MrBeast       8  5.93e8
    ##  8 SHAKIRA || BZRP Music Sessions #53                    Bizarr…       8  9.72e8
    ##  9 100 Kids Vs 100 Adults For $500,000                   MrBeast       7  3.69e8
    ## 10 AMONG US, but with 99 IMPOSTORS                       The Pi…       7  3.93e8
    ## # … with 84 more rows, and abbreviated variable names ¹​channelTitle,
    ## #   ²​v_ntrending, ³​sum_view
…
Entertainment is the one with highest views from 2020 to 2022.

What are the channels of top 100 videos with highest views?

``` r
# Top 100 highest views of total excl. videos
# total = 100 videos
US_nocomm_top100views <- US_nocomm %>%
  arrange(desc(view_count)) %>%
  slice(1:100)

US_nocomm_top100views
```

    ## # A tibble: 100 × 11
    ##    title chann…¹ categ…² trending…³ tags  view_…⁴  likes disli…⁵ comme…⁶ categ…⁷
    ##    <chr> <chr>     <dbl> <date>     <chr>   <dbl>  <dbl>   <dbl>   <dbl> <fct>  
    ##  1 SHAK… Bizarr…      24 2023-01-20 biza…  1.58e8 8.33e6       0  468245 Entert…
    ##  2 SHAK… Bizarr…      24 2023-01-19 biza…  1.51e8 8.17e6       0  460932 Entert…
    ##  3 SHAK… Bizarr…      24 2023-01-18 biza…  1.43e8 7.98e6       0  452536 Entert…
    ##  4 $456… MrBeast      24 2021-12-02 [Non…  1.37e8 1.09e7   67027  527142 Entert…
    ##  5 SHAK… Bizarr…      24 2023-01-17 biza…  1.33e8 7.75e6       0  441937 Entert…
    ##  6 $456… MrBeast      24 2021-12-01 [Non…  1.31e8 1.07e7   62462  516253 Entert…
    ##  7 SHAK… Bizarr…      24 2023-01-16 biza…  1.23e8 7.45e6       0  427387 Entert…
    ##  8 $456… MrBeast      24 2021-11-30 [Non…  1.22e8 1.03e7   56591  501543 Entert…
    ##  9 $456… MrBeast      24 2021-11-29 [Non…  1.11e8 9.69e6   49633  480744 Entert…
    ## 10 SHAK… Bizarr…      24 2023-01-15 biza…  1.10e8 7.03e6       0  410399 Entert…
    ## # … with 90 more rows, 1 more variable: trending_year <chr>, and abbreviated
    ## #   variable names ¹​channelTitle, ²​categoryId, ³​trending_date, ⁴​view_count,
    ## #   ⁵​dislikes, ⁶​comment_count, ⁷​category
…
